[gd_scene load_steps=3 format=2]

[ext_resource path="res://scripts/text_field.gd" type="Script" id=1]

[sub_resource type="StyleBoxEmpty" id=3]

[node name="text_field" type="Panel"]
margin_right = 8.0
margin_bottom = 22.0
rect_min_size = Vector2( 400, 40 )
script = ExtResource( 1 )

[node name="LineEdit" type="LineEdit" parent="."]
anchor_right = 1.0
anchor_bottom = 1.0
mouse_default_cursor_shape = 0
custom_colors/selection_color = Color( 1, 1, 1, 0 )
custom_colors/cursor_color = Color( 0, 0, 0, 0 )
custom_colors/font_color_selected = Color( 0.121569, 0.121569, 1, 0 )
custom_colors/font_color = Color( 0.878431, 0.878431, 0.878431, 0 )
custom_styles/read_only = SubResource( 3 )
custom_styles/focus = SubResource( 3 )
custom_styles/normal = SubResource( 3 )
caret_blink = true
caret_blink_speed = 0.5

[node name="text" type="Label" parent="."]
anchor_right = 1.0
anchor_bottom = 1.0
custom_colors/font_color = Color( 0.878431, 0.878431, 0.878431, 1 )
custom_colors/font_color_shadow = Color( 0.219608, 0.219608, 0.219608, 1 )
custom_constants/shadow_offset_x = 2
custom_constants/shadow_offset_y = 2
valign = 1

[node name="caret_timer" type="Timer" parent="."]
wait_time = 0.3
autostart = true

[connection signal="focus_entered" from="LineEdit" to="." method="_on_LineEdit_focus_entered"]
[connection signal="focus_exited" from="LineEdit" to="." method="_on_LineEdit_focus_exited"]
[connection signal="timeout" from="caret_timer" to="." method="_on_caret_timer_timeout"]
